init_item_stat_weights = {
# sword
# Claymore
11 = {
set_variable = { global.claymore_scope = this }
clear_array = stat_chance
resize_array = { array = stat_chance size = 34 }
set_variable = { stat_chance^0 = 66 }
set_variable = { stat_chance^3 = 5 }
set_variable = { stat_chance^4 = 5 }
set_variable = { stat_chance^5 = 5 }
set_variable = { stat_chance^6 = 5 }
set_variable = { stat_chance^7 = 1 }
set_variable = { stat_chance^8 = 1 }
set_variable = { stat_chance^9 = 1 }
set_variable = { stat_chance^10 = 1 }
set_variable = { stat_chance^11 = 1 }
set_variable = { stat_chance^12 = 3 }
set_variable = { stat_chance^13 = 3 }
set_variable = { stat_chance^14 = 5 }
set_variable = { stat_chance^15 = 10 }
set_variable = { stat_chance^16 = 5 }
set_variable = { stat_chance^17 = 5 }
set_variable = { stat_chance^18 = 2 }
set_variable = { stat_chance^19 = 2 }
set_variable = { stat_chance^21 = 1 }
set_variable = { stat_chance^26 = 2 }
set_variable = { stat_chance^27 = 2 }
set_variable = { stat_chance^29 = 1 }
set_variable = { base_attack = 1.2 }
set_variable = { base_attack_var = 0.3 }
set_variable = { base_attack_speed = 0.4 }
}
# Sabre
12 = {
set_variable = { global.sabre_scope = this }
clear_array = stat_chance
resize_array = { array = stat_chance size = 34 }
set_variable = { stat_chance^0 = 93 }
set_variable = { stat_chance^3 = 5 }
set_variable = { stat_chance^4 = 5 }
set_variable = { stat_chance^5 = 5 }
set_variable = { stat_chance^6 = 5 }
set_variable = { stat_chance^7 = 1 }
set_variable = { stat_chance^8 = 1 }
set_variable = { stat_chance^9 = 1 }
set_variable = { stat_chance^10 = 1 }
set_variable = { stat_chance^11 = 1 }
set_variable = { stat_chance^12 = 3 }
set_variable = { stat_chance^13 = 5 }
set_variable = { stat_chance^14 = 8 }
set_variable = { stat_chance^15 = 5 }
set_variable = { stat_chance^16 = 10 }
set_variable = { stat_chance^17 = 4 }
set_variable = { stat_chance^18 = 4 }
set_variable = { stat_chance^19 = 10 }
set_variable = { stat_chance^21 = 10 }
set_variable = { stat_chance^25 = 1 }
set_variable = { stat_chance^26 = 2 }
set_variable = { stat_chance^27 = 2 }
set_variable = { stat_chance^28 = 2 }
set_variable = { stat_chance^29 = 1 }
set_variable = { stat_chance^30 = 1 }
set_variable = { base_attack = 1 }
set_variable = { base_attack_var = 0.25 }
set_variable = { base_attack_speed = 0.45 }
}
# Scimitar
13 = {
set_variable = { global.scimitar_scope = this }
clear_array = stat_chance
resize_array = { array = stat_chance size = 34 }
set_variable = { stat_chance^0 = 92 }
set_variable = { stat_chance^3 = 5 }
set_variable = { stat_chance^4 = 5 }
set_variable = { stat_chance^5 = 5 }
set_variable = { stat_chance^6 = 5 }
set_variable = { stat_chance^7 = 1 }
set_variable = { stat_chance^8 = 1 }
set_variable = { stat_chance^9 = 1 }
set_variable = { stat_chance^10 = 1 }
set_variable = { stat_chance^11 = 1 }
set_variable = { stat_chance^12 = 3 }
set_variable = { stat_chance^13 = 5 }
set_variable = { stat_chance^14 = 8 }
set_variable = { stat_chance^15 = 5 }
set_variable = { stat_chance^16 = 10 }
set_variable = { stat_chance^17 = 4 }
set_variable = { stat_chance^18 = 4 }
set_variable = { stat_chance^19 = 10 }
set_variable = { stat_chance^21 = 10 }
set_variable = { stat_chance^26 = 2 }
set_variable = { stat_chance^27 = 2 }
set_variable = { stat_chance^28 = 2 }
set_variable = { stat_chance^29 = 1 }
set_variable = { stat_chance^30 = 1 }
set_variable = { base_attack = 1 }
set_variable = { base_attack_var = 0.2 }
set_variable = { base_attack_speed = 0.5 }
}
# Long Sword
14 = {
set_variable = { global.long_sword_scope = this }
clear_array = stat_chance
resize_array = { array = stat_chance size = 34 }
set_variable = { stat_chance^0 = 74 }
set_variable = { stat_chance^3 = 5 }
set_variable = { stat_chance^4 = 5 }
set_variable = { stat_chance^5 = 5 }
set_variable = { stat_chance^6 = 5 }
set_variable = { stat_chance^7 = 1 }
set_variable = { stat_chance^8 = 1 }
set_variable = { stat_chance^9 = 1 }
set_variable = { stat_chance^10 = 1 }
set_variable = { stat_chance^11 = 1 }
set_variable = { stat_chance^12 = 3 }
set_variable = { stat_chance^13 = 3 }
set_variable = { stat_chance^14 = 5 }
set_variable = { stat_chance^15 = 8 }
set_variable = { stat_chance^16 = 8 }
set_variable = { stat_chance^17 = 4 }
set_variable = { stat_chance^18 = 4 }
set_variable = { stat_chance^19 = 5 }
set_variable = { stat_chance^21 = 1 }
set_variable = { stat_chance^26 = 2 }
set_variable = { stat_chance^27 = 2 }
set_variable = { stat_chance^28 = 2 }
set_variable = { stat_chance^29 = 1 }
set_variable = { stat_chance^30 = 1 }
set_variable = { base_attack = 1.1 }
set_variable = { base_attack_var = 0.25 }
set_variable = { base_attack_speed = 0.43 }
}
# Sword
15 = {
set_variable = { global.sword_scope = this }
clear_array = stat_chance
resize_array = { array = stat_chance size = 34 }
set_variable = { stat_chance^0 = 85 }
set_variable = { stat_chance^3 = 5 }
set_variable = { stat_chance^4 = 5 }
set_variable = { stat_chance^5 = 5 }
set_variable = { stat_chance^6 = 5 }
set_variable = { stat_chance^7 = 1 }
set_variable = { stat_chance^8 = 1 }
set_variable = { stat_chance^9 = 1 }
set_variable = { stat_chance^10 = 1 }
set_variable = { stat_chance^11 = 1 }
set_variable = { stat_chance^12 = 3 }
set_variable = { stat_chance^13 = 5 }
set_variable = { stat_chance^14 = 10 }
set_variable = { stat_chance^15 = 8 }
set_variable = { stat_chance^16 = 8 }
set_variable = { stat_chance^17 = 4 }
set_variable = { stat_chance^18 = 4 }
set_variable = { stat_chance^21 = 10 }
set_variable = { stat_chance^26 = 2 }
set_variable = { stat_chance^27 = 2 }
set_variable = { stat_chance^28 = 2 }
set_variable = { stat_chance^29 = 1 }
set_variable = { stat_chance^30 = 1 }
set_variable = { base_attack = 1 }
set_variable = { base_attack_var = 0.2 }
set_variable = { base_attack_speed = 0.5 }
}
# Katana
16 = {
set_variable = { global.katana_scope = this }
clear_array = stat_chance
resize_array = { array = stat_chance size = 34 }
set_variable = { stat_chance^0 = 97 }
set_variable = { stat_chance^3 = 5 }
set_variable = { stat_chance^4 = 5 }
set_variable = { stat_chance^5 = 5 }
set_variable = { stat_chance^6 = 5 }
set_variable = { stat_chance^7 = 1 }
set_variable = { stat_chance^8 = 1 }
set_variable = { stat_chance^9 = 1 }
set_variable = { stat_chance^10 = 1 }
set_variable = { stat_chance^11 = 1 }
set_variable = { stat_chance^12 = 3 }
set_variable = { stat_chance^13 = 2 }
set_variable = { stat_chance^14 = 15 }
set_variable = { stat_chance^15 = 6 }
set_variable = { stat_chance^16 = 6 }
set_variable = { stat_chance^17 = 6 }
set_variable = { stat_chance^18 = 6 }
set_variable = { stat_chance^19 = 10 }
set_variable = { stat_chance^21 = 10 }
set_variable = { stat_chance^26 = 2 }
set_variable = { stat_chance^27 = 2 }
set_variable = { stat_chance^28 = 2 }
set_variable = { stat_chance^29 = 1 }
set_variable = { stat_chance^30 = 1 }
set_variable = { base_attack = 1.05 }
set_variable = { base_attack_var = 0.15 }
set_variable = { base_attack_speed = 0.48 }
}
# armor
# Leather Armor
21 = {
set_variable = { global.leather_armor_scope = this }
clear_array = stat_chance
resize_array = { array = stat_chance size = 34 }
set_variable = { stat_chance^0 = 76 }
set_variable = { stat_chance^7 = 5 }
set_variable = { stat_chance^8 = 5 }
set_variable = { stat_chance^9 = 5 }
set_variable = { stat_chance^10 = 5 }
set_variable = { stat_chance^11 = 10 }
set_variable = { stat_chance^12 = 5 }
set_variable = { stat_chance^15 = 10 }
set_variable = { stat_chance^16 = 10 }
set_variable = { stat_chance^17 = 10 }
set_variable = { stat_chance^18 = 2 }
set_variable = { stat_chance^24 = 1 }
set_variable = { stat_chance^28 = 2 }
set_variable = { stat_chance^29 = 3 }
set_variable = { stat_chance^30 = 3 }
set_variable = { base_armor = 1 }
}
# Robes
22 = {
set_variable = { global.robes_scope = this }
clear_array = stat_chance
resize_array = { array = stat_chance size = 34 }
set_variable = { stat_chance^0 = 107 }
set_variable = { stat_chance^3 = 1 }
set_variable = { stat_chance^4 = 1 }
set_variable = { stat_chance^5 = 1 }
set_variable = { stat_chance^6 = 1 }
set_variable = { stat_chance^7 = 10 }
set_variable = { stat_chance^8 = 10 }
set_variable = { stat_chance^9 = 10 }
set_variable = { stat_chance^10 = 10 }
set_variable = { stat_chance^11 = 5 }
set_variable = { stat_chance^12 = 5 }
set_variable = { stat_chance^13 = 2 }
set_variable = { stat_chance^15 = 3 }
set_variable = { stat_chance^16 = 10 }
set_variable = { stat_chance^17 = 8 }
set_variable = { stat_chance^18 = 15 }
set_variable = { stat_chance^26 = 3 }
set_variable = { stat_chance^27 = 1 }
set_variable = { stat_chance^28 = 2 }
set_variable = { stat_chance^29 = 4 }
set_variable = { stat_chance^30 = 5 }
set_variable = { base_armor = 0.7 }
}
# Animal Skin
23 = {
set_variable = { global.animal_skin_scope = this }
clear_array = stat_chance
resize_array = { array = stat_chance size = 34 }
set_variable = { stat_chance^0 = 119 }
set_variable = { stat_chance^3 = 1 }
set_variable = { stat_chance^4 = 1 }
set_variable = { stat_chance^5 = 1 }
set_variable = { stat_chance^6 = 1 }
set_variable = { stat_chance^7 = 7 }
set_variable = { stat_chance^8 = 7 }
set_variable = { stat_chance^9 = 7 }
set_variable = { stat_chance^10 = 7 }
set_variable = { stat_chance^11 = 10 }
set_variable = { stat_chance^12 = 10 }
set_variable = { stat_chance^13 = 3 }
set_variable = { stat_chance^14 = 3 }
set_variable = { stat_chance^15 = 10 }
set_variable = { stat_chance^16 = 10 }
set_variable = { stat_chance^17 = 10 }
set_variable = { stat_chance^18 = 10 }
set_variable = { stat_chance^19 = 1 }
set_variable = { stat_chance^20 = 1 }
set_variable = { stat_chance^21 = 1 }
set_variable = { stat_chance^26 = 3 }
set_variable = { stat_chance^27 = 1 }
set_variable = { stat_chance^28 = 4 }
set_variable = { stat_chance^29 = 5 }
set_variable = { stat_chance^30 = 5 }
set_variable = { base_armor = 0.75 }
}
# Chain Mail
24 = {
set_variable = { global.chain_mail_scope = this }
clear_array = stat_chance
resize_array = { array = stat_chance size = 34 }
set_variable = { stat_chance^0 = 71 }
set_variable = { stat_chance^7 = 5 }
set_variable = { stat_chance^8 = 5 }
set_variable = { stat_chance^9 = 5 }
set_variable = { stat_chance^10 = 5 }
set_variable = { stat_chance^11 = 1 }
set_variable = { stat_chance^12 = 7 }
set_variable = { stat_chance^15 = 15 }
set_variable = { stat_chance^16 = 3 }
set_variable = { stat_chance^17 = 15 }
set_variable = { stat_chance^18 = 3 }
set_variable = { stat_chance^24 = 2 }
set_variable = { stat_chance^25 = 1 }
set_variable = { stat_chance^28 = 2 }
set_variable = { stat_chance^29 = 2 }
set_variable = { base_armor = 1.2 }
}
# Plate Mail
25 = {
set_variable = { global.plate_mail_scope = this }
clear_array = stat_chance
resize_array = { array = stat_chance size = 34 }
set_variable = { stat_chance^0 = 75 }
set_variable = { stat_chance^7 = 3 }
set_variable = { stat_chance^8 = 3 }
set_variable = { stat_chance^9 = 3 }
set_variable = { stat_chance^10 = 3 }
set_variable = { stat_chance^12 = 15 }
set_variable = { stat_chance^15 = 20 }
set_variable = { stat_chance^17 = 20 }
set_variable = { stat_chance^24 = 3 }
set_variable = { stat_chance^25 = 2 }
set_variable = { stat_chance^28 = 2 }
set_variable = { stat_chance^29 = 1 }
set_variable = { base_armor = 1.4 }
}
# Studded Armor
26 = {
set_variable = { global.studded_armor_scope = this }
clear_array = stat_chance
resize_array = { array = stat_chance size = 34 }
set_variable = { stat_chance^0 = 74 }
set_variable = { stat_chance^7 = 5 }
set_variable = { stat_chance^8 = 5 }
set_variable = { stat_chance^9 = 5 }
set_variable = { stat_chance^10 = 5 }
set_variable = { stat_chance^11 = 4 }
set_variable = { stat_chance^12 = 8 }
set_variable = { stat_chance^15 = 15 }
set_variable = { stat_chance^16 = 3 }
set_variable = { stat_chance^17 = 15 }
set_variable = { stat_chance^18 = 3 }
set_variable = { stat_chance^24 = 1 }
set_variable = { stat_chance^28 = 2 }
set_variable = { stat_chance^29 = 3 }
set_variable = { base_armor = 1.1 }
}
# helm
# Leather Helmet
31 = {
set_variable = { global.leather_helmet_scope = this }
clear_array = stat_chance
resize_array = { array = stat_chance size = 34 }
set_variable = { stat_chance^0 = 90 }
set_variable = { stat_chance^7 = 10 }
set_variable = { stat_chance^8 = 10 }
set_variable = { stat_chance^9 = 10 }
set_variable = { stat_chance^10 = 10 }
set_variable = { stat_chance^11 = 5 }
set_variable = { stat_chance^12 = 10 }
set_variable = { stat_chance^15 = 5 }
set_variable = { stat_chance^16 = 15 }
set_variable = { stat_chance^17 = 5 }
set_variable = { stat_chance^18 = 3 }
set_variable = { stat_chance^21 = 1 }
set_variable = { stat_chance^27 = 1 }
set_variable = { stat_chance^28 = 1 }
set_variable = { stat_chance^29 = 2 }
set_variable = { stat_chance^30 = 2 }
set_variable = { base_armor = 1 }
}
# Hat
32 = {
set_variable = { global.hat_scope = this }
clear_array = stat_chance
resize_array = { array = stat_chance size = 34 }
set_variable = { stat_chance^0 = 113 }
set_variable = { stat_chance^3 = 1 }
set_variable = { stat_chance^4 = 1 }
set_variable = { stat_chance^5 = 1 }
set_variable = { stat_chance^6 = 1 }
set_variable = { stat_chance^7 = 10 }
set_variable = { stat_chance^8 = 10 }
set_variable = { stat_chance^9 = 10 }
set_variable = { stat_chance^10 = 10 }
set_variable = { stat_chance^11 = 10 }
set_variable = { stat_chance^12 = 10 }
set_variable = { stat_chance^13 = 2 }
set_variable = { stat_chance^15 = 3 }
set_variable = { stat_chance^16 = 12 }
set_variable = { stat_chance^17 = 5 }
set_variable = { stat_chance^18 = 12 }
set_variable = { stat_chance^21 = 5 }
set_variable = { stat_chance^26 = 1 }
set_variable = { stat_chance^28 = 1 }
set_variable = { stat_chance^29 = 3 }
set_variable = { stat_chance^30 = 5 }
set_variable = { base_armor = 0.8 }
}
# Metal Helmet
33 = {
set_variable = { global.metal_helmet_scope = this }
clear_array = stat_chance
resize_array = { array = stat_chance size = 34 }
set_variable = { stat_chance^0 = 83 }
set_variable = { stat_chance^7 = 5 }
set_variable = { stat_chance^8 = 5 }
set_variable = { stat_chance^9 = 5 }
set_variable = { stat_chance^10 = 5 }
set_variable = { stat_chance^12 = 20 }
set_variable = { stat_chance^15 = 15 }
set_variable = { stat_chance^16 = 6 }
set_variable = { stat_chance^17 = 10 }
set_variable = { stat_chance^18 = 2 }
set_variable = { stat_chance^24 = 5 }
set_variable = { stat_chance^25 = 1 }
set_variable = { stat_chance^28 = 2 }
set_variable = { stat_chance^29 = 1 }
set_variable = { stat_chance^30 = 1 }
set_variable = { base_armor = 1.2 }
}
# Crown
34 = {
set_variable = { global.crown_scope = this }
clear_array = stat_chance
resize_array = { array = stat_chance size = 34 }
set_variable = { stat_chance^0 = 127 }
set_variable = { stat_chance^3 = 1 }
set_variable = { stat_chance^4 = 1 }
set_variable = { stat_chance^5 = 1 }
set_variable = { stat_chance^6 = 1 }
set_variable = { stat_chance^7 = 15 }
set_variable = { stat_chance^8 = 15 }
set_variable = { stat_chance^9 = 15 }
set_variable = { stat_chance^10 = 15 }
set_variable = { stat_chance^11 = 3 }
set_variable = { stat_chance^12 = 10 }
set_variable = { stat_chance^13 = 3 }
set_variable = { stat_chance^15 = 3 }
set_variable = { stat_chance^16 = 6 }
set_variable = { stat_chance^17 = 6 }
set_variable = { stat_chance^18 = 15 }
set_variable = { stat_chance^21 = 5 }
set_variable = { stat_chance^26 = 1 }
set_variable = { stat_chance^28 = 1 }
set_variable = { stat_chance^29 = 3 }
set_variable = { stat_chance^30 = 7 }
set_variable = { base_armor = 0.5 }
}
# cloak
# Cape
41 = {
set_variable = { global.cape_scope = this }
clear_array = stat_chance
resize_array = { array = stat_chance size = 34 }
set_variable = { stat_chance^0 = 116 }
set_variable = { stat_chance^3 = 1 }
set_variable = { stat_chance^4 = 1 }
set_variable = { stat_chance^5 = 1 }
set_variable = { stat_chance^6 = 1 }
set_variable = { stat_chance^7 = 10 }
set_variable = { stat_chance^8 = 10 }
set_variable = { stat_chance^9 = 10 }
set_variable = { stat_chance^10 = 10 }
set_variable = { stat_chance^11 = 5 }
set_variable = { stat_chance^12 = 8 }
set_variable = { stat_chance^13 = 5 }
set_variable = { stat_chance^14 = 2 }
set_variable = { stat_chance^15 = 3 }
set_variable = { stat_chance^16 = 5 }
set_variable = { stat_chance^17 = 5 }
set_variable = { stat_chance^18 = 7 }
set_variable = { stat_chance^19 = 1 }
set_variable = { stat_chance^20 = 1 }
set_variable = { stat_chance^21 = 3 }
set_variable = { stat_chance^24 = 1 }
set_variable = { stat_chance^25 = 1 }
set_variable = { stat_chance^26 = 1 }
set_variable = { stat_chance^27 = 1 }
set_variable = { stat_chance^28 = 3 }
set_variable = { stat_chance^29 = 5 }
set_variable = { stat_chance^30 = 15 }
}
# Cloak
42 = {
set_variable = { global.cloak_scope = this }
clear_array = stat_chance
resize_array = { array = stat_chance size = 34 }
set_variable = { stat_chance^0 = 117 }
set_variable = { stat_chance^3 = 1 }
set_variable = { stat_chance^4 = 1 }
set_variable = { stat_chance^5 = 1 }
set_variable = { stat_chance^6 = 1 }
set_variable = { stat_chance^7 = 10 }
set_variable = { stat_chance^8 = 10 }
set_variable = { stat_chance^9 = 10 }
set_variable = { stat_chance^10 = 10 }
set_variable = { stat_chance^11 = 5 }
set_variable = { stat_chance^12 = 10 }
set_variable = { stat_chance^13 = 5 }
set_variable = { stat_chance^14 = 1 }
set_variable = { stat_chance^15 = 3 }
set_variable = { stat_chance^16 = 5 }
set_variable = { stat_chance^17 = 5 }
set_variable = { stat_chance^18 = 7 }
set_variable = { stat_chance^19 = 1 }
set_variable = { stat_chance^20 = 1 }
set_variable = { stat_chance^21 = 3 }
set_variable = { stat_chance^24 = 1 }
set_variable = { stat_chance^25 = 1 }
set_variable = { stat_chance^26 = 1 }
set_variable = { stat_chance^27 = 1 }
set_variable = { stat_chance^28 = 3 }
set_variable = { stat_chance^29 = 5 }
set_variable = { stat_chance^30 = 15 }
}
# shield
# Buckler
51 = {
set_variable = { global.buckler_scope = this }
clear_array = stat_chance
resize_array = { array = stat_chance size = 34 }
set_variable = { stat_chance^0 = 110 }
set_variable = { stat_chance^7 = 13 }
set_variable = { stat_chance^8 = 13 }
set_variable = { stat_chance^9 = 13 }
set_variable = { stat_chance^10 = 13 }
set_variable = { stat_chance^11 = 5 }
set_variable = { stat_chance^12 = 5 }
set_variable = { stat_chance^13 = 1 }
set_variable = { stat_chance^15 = 3 }
set_variable = { stat_chance^16 = 15 }
set_variable = { stat_chance^17 = 5 }
set_variable = { stat_chance^18 = 5 }
set_variable = { stat_chance^19 = 3 }
set_variable = { stat_chance^21 = 1 }
set_variable = { stat_chance^24 = 1 }
set_variable = { stat_chance^26 = 1 }
set_variable = { stat_chance^27 = 1 }
set_variable = { stat_chance^28 = 3 }
set_variable = { stat_chance^29 = 6 }
set_variable = { stat_chance^30 = 3 }
set_variable = { base_armor = 0.8 }
set_variable = { base_block_chance = 0.7 }
}
# Tower Shield
52 = {
set_variable = { global.tower_shield_scope = this }
clear_array = stat_chance
resize_array = { array = stat_chance size = 34 }
set_variable = { stat_chance^0 = 69 }
set_variable = { stat_chance^7 = 5 }
set_variable = { stat_chance^8 = 5 }
set_variable = { stat_chance^9 = 5 }
set_variable = { stat_chance^10 = 5 }
set_variable = { stat_chance^12 = 10 }
set_variable = { stat_chance^13 = 1 }
set_variable = { stat_chance^15 = 10 }
set_variable = { stat_chance^16 = 3 }
set_variable = { stat_chance^17 = 10 }
set_variable = { stat_chance^18 = 1 }
set_variable = { stat_chance^21 = 1 }
set_variable = { stat_chance^24 = 4 }
set_variable = { stat_chance^26 = 1 }
set_variable = { stat_chance^27 = 1 }
set_variable = { stat_chance^28 = 3 }
set_variable = { stat_chance^29 = 3 }
set_variable = { stat_chance^30 = 1 }
set_variable = { base_armor = 1.2 }
set_variable = { base_block_chance = 1.3 }
}
# Shield
53 = {
set_variable = { global.shield_scope = this }
clear_array = stat_chance
resize_array = { array = stat_chance size = 34 }
set_variable = { stat_chance^0 = 85 }
set_variable = { stat_chance^7 = 10 }
set_variable = { stat_chance^8 = 10 }
set_variable = { stat_chance^9 = 10 }
set_variable = { stat_chance^10 = 10 }
set_variable = { stat_chance^12 = 8 }
set_variable = { stat_chance^13 = 1 }
set_variable = { stat_chance^15 = 6 }
set_variable = { stat_chance^16 = 6 }
set_variable = { stat_chance^17 = 6 }
set_variable = { stat_chance^18 = 3 }
set_variable = { stat_chance^21 = 1 }
set_variable = { stat_chance^24 = 2 }
set_variable = { stat_chance^26 = 1 }
set_variable = { stat_chance^27 = 1 }
set_variable = { stat_chance^28 = 3 }
set_variable = { stat_chance^29 = 5 }
set_variable = { stat_chance^30 = 2 }
set_variable = { base_armor = 1 }
set_variable = { base_block_chance = 1 }
}
# ring
# Rings
60 = {
set_variable = { global.rings_scope = this }
clear_array = stat_chance
resize_array = { array = stat_chance size = 34 }
set_variable = { stat_chance^0 = 136 }
set_variable = { stat_chance^2 = 3 }
set_variable = { stat_chance^3 = 1 }
set_variable = { stat_chance^4 = 1 }
set_variable = { stat_chance^5 = 1 }
set_variable = { stat_chance^6 = 1 }
set_variable = { stat_chance^7 = 10 }
set_variable = { stat_chance^8 = 10 }
set_variable = { stat_chance^9 = 10 }
set_variable = { stat_chance^10 = 10 }
set_variable = { stat_chance^11 = 6 }
set_variable = { stat_chance^12 = 10 }
set_variable = { stat_chance^13 = 6 }
set_variable = { stat_chance^14 = 6 }
set_variable = { stat_chance^15 = 6 }
set_variable = { stat_chance^16 = 6 }
set_variable = { stat_chance^17 = 6 }
set_variable = { stat_chance^18 = 6 }
set_variable = { stat_chance^19 = 5 }
set_variable = { stat_chance^20 = 5 }
set_variable = { stat_chance^21 = 5 }
set_variable = { stat_chance^24 = 1 }
set_variable = { stat_chance^25 = 1 }
set_variable = { stat_chance^26 = 1 }
set_variable = { stat_chance^27 = 1 }
set_variable = { stat_chance^28 = 3 }
set_variable = { stat_chance^29 = 5 }
set_variable = { stat_chance^30 = 10 }
set_variable = { always_magic = 1 }
}
# amulet
# Amulets
70 = {
set_variable = { global.amulets_scope = this }
clear_array = stat_chance
resize_array = { array = stat_chance size = 34 }
set_variable = { stat_chance^0 = 136 }
set_variable = { stat_chance^2 = 3 }
set_variable = { stat_chance^3 = 1 }
set_variable = { stat_chance^4 = 1 }
set_variable = { stat_chance^5 = 1 }
set_variable = { stat_chance^6 = 1 }
set_variable = { stat_chance^7 = 10 }
set_variable = { stat_chance^8 = 10 }
set_variable = { stat_chance^9 = 10 }
set_variable = { stat_chance^10 = 10 }
set_variable = { stat_chance^11 = 6 }
set_variable = { stat_chance^12 = 10 }
set_variable = { stat_chance^13 = 6 }
set_variable = { stat_chance^14 = 6 }
set_variable = { stat_chance^15 = 6 }
set_variable = { stat_chance^16 = 6 }
set_variable = { stat_chance^17 = 6 }
set_variable = { stat_chance^18 = 6 }
set_variable = { stat_chance^19 = 5 }
set_variable = { stat_chance^20 = 5 }
set_variable = { stat_chance^21 = 5 }
set_variable = { stat_chance^24 = 1 }
set_variable = { stat_chance^25 = 1 }
set_variable = { stat_chance^26 = 1 }
set_variable = { stat_chance^27 = 1 }
set_variable = { stat_chance^28 = 3 }
set_variable = { stat_chance^29 = 5 }
set_variable = { stat_chance^30 = 10 }
set_variable = { always_magic = 1 }
}
# boots
# Leather Boots
81 = {
set_variable = { global.leather_boots_scope = this }
clear_array = stat_chance
resize_array = { array = stat_chance size = 34 }
set_variable = { stat_chance^0 = 81 }
set_variable = { stat_chance^7 = 8 }
set_variable = { stat_chance^8 = 8 }
set_variable = { stat_chance^9 = 8 }
set_variable = { stat_chance^10 = 8 }
set_variable = { stat_chance^11 = 10 }
set_variable = { stat_chance^12 = 10 }
set_variable = { stat_chance^15 = 3 }
set_variable = { stat_chance^16 = 6 }
set_variable = { stat_chance^17 = 6 }
set_variable = { stat_chance^18 = 5 }
set_variable = { stat_chance^24 = 1 }
set_variable = { stat_chance^28 = 1 }
set_variable = { stat_chance^29 = 2 }
set_variable = { stat_chance^30 = 5 }
set_variable = { base_armor = 1 }
set_variable = { base_move_speed = 0.4 }
}
# Boots
82 = {
set_variable = { global.boots_scope = this }
clear_array = stat_chance
resize_array = { array = stat_chance size = 34 }
set_variable = { stat_chance^0 = 94 }
set_variable = { stat_chance^7 = 10 }
set_variable = { stat_chance^8 = 10 }
set_variable = { stat_chance^9 = 10 }
set_variable = { stat_chance^10 = 10 }
set_variable = { stat_chance^11 = 8 }
set_variable = { stat_chance^12 = 10 }
set_variable = { stat_chance^15 = 1 }
set_variable = { stat_chance^16 = 7 }
set_variable = { stat_chance^17 = 5 }
set_variable = { stat_chance^18 = 10 }
set_variable = { stat_chance^26 = 1 }
set_variable = { stat_chance^29 = 4 }
set_variable = { stat_chance^30 = 8 }
set_variable = { base_armor = 0.9 }
set_variable = { base_move_speed = 0.5 }
}
# Sandals
83 = {
set_variable = { global.sandals_scope = this }
clear_array = stat_chance
resize_array = { array = stat_chance size = 34 }
set_variable = { stat_chance^0 = 85 }
set_variable = { stat_chance^7 = 8 }
set_variable = { stat_chance^8 = 8 }
set_variable = { stat_chance^9 = 8 }
set_variable = { stat_chance^10 = 8 }
set_variable = { stat_chance^11 = 12 }
set_variable = { stat_chance^12 = 6 }
set_variable = { stat_chance^15 = 3 }
set_variable = { stat_chance^16 = 10 }
set_variable = { stat_chance^17 = 6 }
set_variable = { stat_chance^18 = 6 }
set_variable = { stat_chance^26 = 1 }
set_variable = { stat_chance^29 = 2 }
set_variable = { stat_chance^30 = 7 }
set_variable = { base_armor = 0.8 }
set_variable = { base_move_speed = 0.7 }
}
# Plate Boots
84 = {
set_variable = { global.plate_boots_scope = this }
clear_array = stat_chance
resize_array = { array = stat_chance size = 34 }
set_variable = { stat_chance^0 = 62 }
set_variable = { stat_chance^7 = 8 }
set_variable = { stat_chance^8 = 8 }
set_variable = { stat_chance^9 = 8 }
set_variable = { stat_chance^10 = 8 }
set_variable = { stat_chance^11 = 3 }
set_variable = { stat_chance^12 = 12 }
set_variable = { stat_chance^13 = 1 }
set_variable = { stat_chance^15 = 5 }
set_variable = { stat_chance^16 = 1 }
set_variable = { stat_chance^17 = 5 }
set_variable = { stat_chance^18 = 1 }
set_variable = { stat_chance^29 = 1 }
set_variable = { stat_chance^30 = 1 }
set_variable = { base_armor = 1.2 }
set_variable = { base_move_speed = 0.2 }
}
# Shoes
85 = {
set_variable = { global.shoes_scope = this }
clear_array = stat_chance
resize_array = { array = stat_chance size = 34 }
set_variable = { stat_chance^0 = 78 }
set_variable = { stat_chance^7 = 10 }
set_variable = { stat_chance^8 = 10 }
set_variable = { stat_chance^9 = 10 }
set_variable = { stat_chance^10 = 10 }
set_variable = { stat_chance^11 = 10 }
set_variable = { stat_chance^12 = 6 }
set_variable = { stat_chance^13 = 1 }
set_variable = { stat_chance^15 = 3 }
set_variable = { stat_chance^16 = 3 }
set_variable = { stat_chance^17 = 3 }
set_variable = { stat_chance^18 = 3 }
set_variable = { stat_chance^26 = 1 }
set_variable = { stat_chance^29 = 3 }
set_variable = { stat_chance^30 = 5 }
set_variable = { base_armor = 0.8 }
set_variable = { base_move_speed = 0.85 }
}
# gloves
# Gauntlets
91 = {
set_variable = { global.gauntlets_scope = this }
clear_array = stat_chance
resize_array = { array = stat_chance size = 34 }
set_variable = { stat_chance^0 = 64 }
set_variable = { stat_chance^7 = 10 }
set_variable = { stat_chance^8 = 10 }
set_variable = { stat_chance^9 = 10 }
set_variable = { stat_chance^10 = 10 }
set_variable = { stat_chance^12 = 5 }
set_variable = { stat_chance^13 = 1 }
set_variable = { stat_chance^14 = 1 }
set_variable = { stat_chance^15 = 5 }
set_variable = { stat_chance^16 = 1 }
set_variable = { stat_chance^17 = 4 }
set_variable = { stat_chance^18 = 1 }
set_variable = { stat_chance^24 = 1 }
set_variable = { stat_chance^25 = 1 }
set_variable = { stat_chance^27 = 1 }
set_variable = { stat_chance^28 = 1 }
set_variable = { stat_chance^29 = 1 }
set_variable = { stat_chance^30 = 1 }
set_variable = { base_armor = 1.2 }
}
# Leather Gloves
92 = {
set_variable = { global.leather_gloves_scope = this }
clear_array = stat_chance
resize_array = { array = stat_chance size = 34 }
set_variable = { stat_chance^0 = 65 }
set_variable = { stat_chance^3 = 1 }
set_variable = { stat_chance^4 = 1 }
set_variable = { stat_chance^5 = 1 }
set_variable = { stat_chance^6 = 1 }
set_variable = { stat_chance^7 = 7 }
set_variable = { stat_chance^8 = 7 }
set_variable = { stat_chance^9 = 7 }
set_variable = { stat_chance^10 = 7 }
set_variable = { stat_chance^11 = 2 }
set_variable = { stat_chance^12 = 4 }
set_variable = { stat_chance^13 = 2 }
set_variable = { stat_chance^14 = 1 }
set_variable = { stat_chance^15 = 2 }
set_variable = { stat_chance^16 = 5 }
set_variable = { stat_chance^17 = 3 }
set_variable = { stat_chance^18 = 3 }
set_variable = { stat_chance^19 = 3 }
set_variable = { stat_chance^21 = 1 }
set_variable = { stat_chance^26 = 1 }
set_variable = { stat_chance^28 = 1 }
set_variable = { stat_chance^29 = 2 }
set_variable = { stat_chance^30 = 3 }
set_variable = { base_armor = 1 }
}
# Mittens
93 = {
set_variable = { global.mittens_scope = this }
clear_array = stat_chance
resize_array = { array = stat_chance size = 34 }
set_variable = { stat_chance^0 = 81 }
set_variable = { stat_chance^3 = 3 }
set_variable = { stat_chance^4 = 1 }
set_variable = { stat_chance^5 = 1 }
set_variable = { stat_chance^6 = 1 }
set_variable = { stat_chance^7 = 15 }
set_variable = { stat_chance^8 = 8 }
set_variable = { stat_chance^9 = 8 }
set_variable = { stat_chance^10 = 8 }
set_variable = { stat_chance^11 = 2 }
set_variable = { stat_chance^12 = 5 }
set_variable = { stat_chance^13 = 3 }
set_variable = { stat_chance^14 = 1 }
set_variable = { stat_chance^15 = 1 }
set_variable = { stat_chance^16 = 4 }
set_variable = { stat_chance^17 = 5 }
set_variable = { stat_chance^18 = 4 }
set_variable = { stat_chance^19 = 2 }
set_variable = { stat_chance^21 = 2 }
set_variable = { stat_chance^26 = 1 }
set_variable = { stat_chance^28 = 1 }
set_variable = { stat_chance^29 = 2 }
set_variable = { stat_chance^30 = 3 }
set_variable = { base_armor = 0.8 }
}
# Gloves
94 = {
set_variable = { global.gloves_scope = this }
clear_array = stat_chance
resize_array = { array = stat_chance size = 34 }
set_variable = { stat_chance^0 = 73 }
set_variable = { stat_chance^3 = 2 }
set_variable = { stat_chance^4 = 2 }
set_variable = { stat_chance^5 = 2 }
set_variable = { stat_chance^6 = 2 }
set_variable = { stat_chance^7 = 8 }
set_variable = { stat_chance^8 = 8 }
set_variable = { stat_chance^9 = 8 }
set_variable = { stat_chance^10 = 8 }
set_variable = { stat_chance^11 = 2 }
set_variable = { stat_chance^12 = 3 }
set_variable = { stat_chance^13 = 3 }
set_variable = { stat_chance^14 = 1 }
set_variable = { stat_chance^15 = 1 }
set_variable = { stat_chance^16 = 3 }
set_variable = { stat_chance^17 = 3 }
set_variable = { stat_chance^18 = 5 }
set_variable = { stat_chance^19 = 1 }
set_variable = { stat_chance^21 = 2 }
set_variable = { stat_chance^26 = 1 }
set_variable = { stat_chance^28 = 1 }
set_variable = { stat_chance^29 = 2 }
set_variable = { stat_chance^30 = 5 }
set_variable = { base_armor = 0.8 }
}
# axe
# Axe
101 = {
set_variable = { global.axe_scope = this }
clear_array = stat_chance
resize_array = { array = stat_chance size = 34 }
set_variable = { stat_chance^0 = 72 }
set_variable = { stat_chance^3 = 5 }
set_variable = { stat_chance^4 = 5 }
set_variable = { stat_chance^5 = 5 }
set_variable = { stat_chance^6 = 5 }
set_variable = { stat_chance^7 = 1 }
set_variable = { stat_chance^8 = 1 }
set_variable = { stat_chance^9 = 1 }
set_variable = { stat_chance^10 = 1 }
set_variable = { stat_chance^11 = 1 }
set_variable = { stat_chance^12 = 3 }
set_variable = { stat_chance^13 = 3 }
set_variable = { stat_chance^14 = 8 }
set_variable = { stat_chance^15 = 7 }
set_variable = { stat_chance^16 = 7 }
set_variable = { stat_chance^17 = 5 }
set_variable = { stat_chance^18 = 2 }
set_variable = { stat_chance^19 = 4 }
set_variable = { stat_chance^21 = 1 }
set_variable = { stat_chance^26 = 2 }
set_variable = { stat_chance^27 = 2 }
set_variable = { stat_chance^28 = 2 }
set_variable = { stat_chance^30 = 1 }
set_variable = { base_attack = 1 }
set_variable = { base_attack_var = 0.2 }
set_variable = { base_attack_speed = 0.4 }
}
# Battle Axe
102 = {
set_variable = { global.battle_axe_scope = this }
clear_array = stat_chance
resize_array = { array = stat_chance size = 34 }
set_variable = { stat_chance^0 = 71 }
set_variable = { stat_chance^3 = 5 }
set_variable = { stat_chance^4 = 5 }
set_variable = { stat_chance^5 = 5 }
set_variable = { stat_chance^6 = 5 }
set_variable = { stat_chance^7 = 1 }
set_variable = { stat_chance^8 = 1 }
set_variable = { stat_chance^9 = 1 }
set_variable = { stat_chance^10 = 1 }
set_variable = { stat_chance^11 = 1 }
set_variable = { stat_chance^12 = 3 }
set_variable = { stat_chance^13 = 5 }
set_variable = { stat_chance^14 = 5 }
set_variable = { stat_chance^15 = 10 }
set_variable = { stat_chance^16 = 5 }
set_variable = { stat_chance^17 = 6 }
set_variable = { stat_chance^18 = 2 }
set_variable = { stat_chance^19 = 2 }
set_variable = { stat_chance^21 = 1 }
set_variable = { stat_chance^26 = 2 }
set_variable = { stat_chance^27 = 2 }
set_variable = { stat_chance^28 = 2 }
set_variable = { stat_chance^30 = 1 }
set_variable = { base_attack = 1.3 }
set_variable = { base_attack_var = 0.4 }
set_variable = { base_attack_speed = 0.3 }
}
# spear
# Halberd
111 = {
set_variable = { global.halberd_scope = this }
clear_array = stat_chance
resize_array = { array = stat_chance size = 34 }
set_variable = { stat_chance^0 = 71 }
set_variable = { stat_chance^3 = 5 }
set_variable = { stat_chance^4 = 5 }
set_variable = { stat_chance^5 = 5 }
set_variable = { stat_chance^6 = 5 }
set_variable = { stat_chance^7 = 1 }
set_variable = { stat_chance^8 = 1 }
set_variable = { stat_chance^9 = 1 }
set_variable = { stat_chance^10 = 1 }
set_variable = { stat_chance^12 = 5 }
set_variable = { stat_chance^13 = 5 }
set_variable = { stat_chance^14 = 10 }
set_variable = { stat_chance^15 = 5 }
set_variable = { stat_chance^16 = 7 }
set_variable = { stat_chance^17 = 5 }
set_variable = { stat_chance^18 = 1 }
set_variable = { stat_chance^19 = 1 }
set_variable = { stat_chance^21 = 2 }
set_variable = { stat_chance^26 = 2 }
set_variable = { stat_chance^27 = 2 }
set_variable = { stat_chance^28 = 1 }
set_variable = { stat_chance^30 = 1 }
set_variable = { base_attack = 1.3 }
set_variable = { base_attack_var = 0.3 }
set_variable = { base_attack_speed = 0.3 }
}
# Bardiche
112 = {
set_variable = { global.bardiche_scope = this }
clear_array = stat_chance
resize_array = { array = stat_chance size = 34 }
set_variable = { stat_chance^0 = 71 }
set_variable = { stat_chance^3 = 5 }
set_variable = { stat_chance^4 = 5 }
set_variable = { stat_chance^5 = 5 }
set_variable = { stat_chance^6 = 5 }
set_variable = { stat_chance^7 = 1 }
set_variable = { stat_chance^8 = 1 }
set_variable = { stat_chance^9 = 1 }
set_variable = { stat_chance^10 = 1 }
set_variable = { stat_chance^12 = 5 }
set_variable = { stat_chance^13 = 5 }
set_variable = { stat_chance^14 = 10 }
set_variable = { stat_chance^15 = 5 }
set_variable = { stat_chance^16 = 7 }
set_variable = { stat_chance^17 = 5 }
set_variable = { stat_chance^18 = 1 }
set_variable = { stat_chance^19 = 1 }
set_variable = { stat_chance^21 = 2 }
set_variable = { stat_chance^26 = 2 }
set_variable = { stat_chance^27 = 2 }
set_variable = { stat_chance^28 = 1 }
set_variable = { stat_chance^30 = 1 }
set_variable = { base_attack = 1.3 }
set_variable = { base_attack_var = 0.3 }
set_variable = { base_attack_speed = 0.3 }
}
# Lucerne Hammer
113 = {
set_variable = { global.lucerne_hammer_scope = this }
clear_array = stat_chance
resize_array = { array = stat_chance size = 34 }
set_variable = { stat_chance^0 = 71 }
set_variable = { stat_chance^3 = 5 }
set_variable = { stat_chance^4 = 5 }
set_variable = { stat_chance^5 = 5 }
set_variable = { stat_chance^6 = 5 }
set_variable = { stat_chance^7 = 1 }
set_variable = { stat_chance^8 = 1 }
set_variable = { stat_chance^9 = 1 }
set_variable = { stat_chance^10 = 1 }
set_variable = { stat_chance^12 = 5 }
set_variable = { stat_chance^13 = 5 }
set_variable = { stat_chance^14 = 10 }
set_variable = { stat_chance^15 = 5 }
set_variable = { stat_chance^16 = 7 }
set_variable = { stat_chance^17 = 5 }
set_variable = { stat_chance^18 = 1 }
set_variable = { stat_chance^19 = 1 }
set_variable = { stat_chance^21 = 2 }
set_variable = { stat_chance^26 = 2 }
set_variable = { stat_chance^27 = 2 }
set_variable = { stat_chance^28 = 1 }
set_variable = { stat_chance^30 = 1 }
set_variable = { base_attack = 1.3 }
set_variable = { base_attack_var = 0.3 }
set_variable = { base_attack_speed = 0.3 }
}
# Spear
114 = {
set_variable = { global.spear_scope = this }
clear_array = stat_chance
resize_array = { array = stat_chance size = 34 }
set_variable = { stat_chance^0 = 71 }
set_variable = { stat_chance^3 = 5 }
set_variable = { stat_chance^4 = 5 }
set_variable = { stat_chance^5 = 5 }
set_variable = { stat_chance^6 = 5 }
set_variable = { stat_chance^7 = 1 }
set_variable = { stat_chance^8 = 1 }
set_variable = { stat_chance^9 = 1 }
set_variable = { stat_chance^10 = 1 }
set_variable = { stat_chance^12 = 5 }
set_variable = { stat_chance^13 = 5 }
set_variable = { stat_chance^14 = 10 }
set_variable = { stat_chance^15 = 5 }
set_variable = { stat_chance^16 = 7 }
set_variable = { stat_chance^17 = 5 }
set_variable = { stat_chance^18 = 1 }
set_variable = { stat_chance^19 = 1 }
set_variable = { stat_chance^21 = 2 }
set_variable = { stat_chance^26 = 2 }
set_variable = { stat_chance^27 = 2 }
set_variable = { stat_chance^28 = 1 }
set_variable = { stat_chance^30 = 1 }
set_variable = { base_attack = 1.3 }
set_variable = { base_attack_var = 0.3 }
set_variable = { base_attack_speed = 0.3 }
}
# Trident
115 = {
set_variable = { global.trident_scope = this }
clear_array = stat_chance
resize_array = { array = stat_chance size = 34 }
set_variable = { stat_chance^0 = 71 }
set_variable = { stat_chance^3 = 5 }
set_variable = { stat_chance^4 = 5 }
set_variable = { stat_chance^5 = 5 }
set_variable = { stat_chance^6 = 5 }
set_variable = { stat_chance^7 = 1 }
set_variable = { stat_chance^8 = 1 }
set_variable = { stat_chance^9 = 1 }
set_variable = { stat_chance^10 = 1 }
set_variable = { stat_chance^12 = 5 }
set_variable = { stat_chance^13 = 5 }
set_variable = { stat_chance^14 = 10 }
set_variable = { stat_chance^15 = 5 }
set_variable = { stat_chance^16 = 7 }
set_variable = { stat_chance^17 = 5 }
set_variable = { stat_chance^18 = 1 }
set_variable = { stat_chance^19 = 1 }
set_variable = { stat_chance^21 = 2 }
set_variable = { stat_chance^26 = 2 }
set_variable = { stat_chance^27 = 2 }
set_variable = { stat_chance^28 = 1 }
set_variable = { stat_chance^30 = 1 }
set_variable = { base_attack = 1.3 }
set_variable = { base_attack_var = 0.3 }
set_variable = { base_attack_speed = 0.3 }
}
# Scythe
116 = {
set_variable = { global.scythe_scope = this }
clear_array = stat_chance
resize_array = { array = stat_chance size = 34 }
set_variable = { stat_chance^0 = 71 }
set_variable = { stat_chance^3 = 5 }
set_variable = { stat_chance^4 = 5 }
set_variable = { stat_chance^5 = 5 }
set_variable = { stat_chance^6 = 5 }
set_variable = { stat_chance^7 = 1 }
set_variable = { stat_chance^8 = 1 }
set_variable = { stat_chance^9 = 1 }
set_variable = { stat_chance^10 = 1 }
set_variable = { stat_chance^12 = 5 }
set_variable = { stat_chance^13 = 5 }
set_variable = { stat_chance^14 = 10 }
set_variable = { stat_chance^15 = 5 }
set_variable = { stat_chance^16 = 7 }
set_variable = { stat_chance^17 = 5 }
set_variable = { stat_chance^18 = 1 }
set_variable = { stat_chance^19 = 1 }
set_variable = { stat_chance^21 = 2 }
set_variable = { stat_chance^26 = 2 }
set_variable = { stat_chance^27 = 2 }
set_variable = { stat_chance^28 = 1 }
set_variable = { stat_chance^30 = 1 }
set_variable = { base_attack = 1.3 }
set_variable = { base_attack_var = 0.3 }
set_variable = { base_attack_speed = 0.3 }
}
# mace
# Mace
121 = {
set_variable = { global.mace_scope = this }
clear_array = stat_chance
resize_array = { array = stat_chance size = 34 }
set_variable = { stat_chance^0 = 71 }
set_variable = { stat_chance^3 = 5 }
set_variable = { stat_chance^4 = 5 }
set_variable = { stat_chance^5 = 5 }
set_variable = { stat_chance^6 = 5 }
set_variable = { stat_chance^7 = 1 }
set_variable = { stat_chance^8 = 1 }
set_variable = { stat_chance^9 = 1 }
set_variable = { stat_chance^10 = 1 }
set_variable = { stat_chance^12 = 5 }
set_variable = { stat_chance^13 = 5 }
set_variable = { stat_chance^14 = 10 }
set_variable = { stat_chance^15 = 5 }
set_variable = { stat_chance^16 = 7 }
set_variable = { stat_chance^17 = 5 }
set_variable = { stat_chance^18 = 1 }
set_variable = { stat_chance^19 = 1 }
set_variable = { stat_chance^21 = 2 }
set_variable = { stat_chance^26 = 2 }
set_variable = { stat_chance^27 = 2 }
set_variable = { stat_chance^28 = 1 }
set_variable = { stat_chance^30 = 1 }
set_variable = { base_attack = 1.2 }
set_variable = { base_attack_var = 0.1 }
set_variable = { base_attack_speed = 0.4 }
}
# Spiked Mace
122 = {
set_variable = { global.spiked_mace_scope = this }
clear_array = stat_chance
resize_array = { array = stat_chance size = 34 }
set_variable = { stat_chance^0 = 71 }
set_variable = { stat_chance^3 = 5 }
set_variable = { stat_chance^4 = 5 }
set_variable = { stat_chance^5 = 5 }
set_variable = { stat_chance^6 = 5 }
set_variable = { stat_chance^7 = 1 }
set_variable = { stat_chance^8 = 1 }
set_variable = { stat_chance^9 = 1 }
set_variable = { stat_chance^10 = 1 }
set_variable = { stat_chance^12 = 5 }
set_variable = { stat_chance^13 = 5 }
set_variable = { stat_chance^14 = 10 }
set_variable = { stat_chance^15 = 5 }
set_variable = { stat_chance^16 = 7 }
set_variable = { stat_chance^17 = 5 }
set_variable = { stat_chance^18 = 1 }
set_variable = { stat_chance^19 = 1 }
set_variable = { stat_chance^21 = 2 }
set_variable = { stat_chance^26 = 2 }
set_variable = { stat_chance^27 = 2 }
set_variable = { stat_chance^28 = 1 }
set_variable = { stat_chance^30 = 1 }
set_variable = { base_attack = 1.2 }
set_variable = { base_attack_var = 0.1 }
set_variable = { base_attack_speed = 0.4 }
}
# Flail
123 = {
set_variable = { global.flail_scope = this }
clear_array = stat_chance
resize_array = { array = stat_chance size = 34 }
set_variable = { stat_chance^0 = 71 }
set_variable = { stat_chance^3 = 5 }
set_variable = { stat_chance^4 = 5 }
set_variable = { stat_chance^5 = 5 }
set_variable = { stat_chance^6 = 5 }
set_variable = { stat_chance^7 = 1 }
set_variable = { stat_chance^8 = 1 }
set_variable = { stat_chance^9 = 1 }
set_variable = { stat_chance^10 = 1 }
set_variable = { stat_chance^12 = 5 }
set_variable = { stat_chance^13 = 5 }
set_variable = { stat_chance^14 = 10 }
set_variable = { stat_chance^15 = 5 }
set_variable = { stat_chance^16 = 7 }
set_variable = { stat_chance^17 = 5 }
set_variable = { stat_chance^18 = 1 }
set_variable = { stat_chance^19 = 1 }
set_variable = { stat_chance^21 = 2 }
set_variable = { stat_chance^26 = 2 }
set_variable = { stat_chance^27 = 2 }
set_variable = { stat_chance^28 = 1 }
set_variable = { stat_chance^30 = 1 }
set_variable = { base_attack = 1.2 }
set_variable = { base_attack_var = 0.1 }
set_variable = { base_attack_speed = 0.4 }
}
# Club
124 = {
set_variable = { global.club_scope = this }
clear_array = stat_chance
resize_array = { array = stat_chance size = 34 }
set_variable = { stat_chance^0 = 71 }
set_variable = { stat_chance^3 = 5 }
set_variable = { stat_chance^4 = 5 }
set_variable = { stat_chance^5 = 5 }
set_variable = { stat_chance^6 = 5 }
set_variable = { stat_chance^7 = 1 }
set_variable = { stat_chance^8 = 1 }
set_variable = { stat_chance^9 = 1 }
set_variable = { stat_chance^10 = 1 }
set_variable = { stat_chance^12 = 5 }
set_variable = { stat_chance^13 = 5 }
set_variable = { stat_chance^14 = 10 }
set_variable = { stat_chance^15 = 5 }
set_variable = { stat_chance^16 = 7 }
set_variable = { stat_chance^17 = 5 }
set_variable = { stat_chance^18 = 1 }
set_variable = { stat_chance^19 = 1 }
set_variable = { stat_chance^21 = 2 }
set_variable = { stat_chance^26 = 2 }
set_variable = { stat_chance^27 = 2 }
set_variable = { stat_chance^28 = 1 }
set_variable = { stat_chance^30 = 1 }
set_variable = { base_attack = 1.2 }
set_variable = { base_attack_var = 0.1 }
set_variable = { base_attack_speed = 0.4 }
}
# Hammer
125 = {
set_variable = { global.hammer_scope = this }
clear_array = stat_chance
resize_array = { array = stat_chance size = 34 }
set_variable = { stat_chance^0 = 71 }
set_variable = { stat_chance^3 = 5 }
set_variable = { stat_chance^4 = 5 }
set_variable = { stat_chance^5 = 5 }
set_variable = { stat_chance^6 = 5 }
set_variable = { stat_chance^7 = 1 }
set_variable = { stat_chance^8 = 1 }
set_variable = { stat_chance^9 = 1 }
set_variable = { stat_chance^10 = 1 }
set_variable = { stat_chance^12 = 5 }
set_variable = { stat_chance^13 = 5 }
set_variable = { stat_chance^14 = 10 }
set_variable = { stat_chance^15 = 5 }
set_variable = { stat_chance^16 = 7 }
set_variable = { stat_chance^17 = 5 }
set_variable = { stat_chance^18 = 1 }
set_variable = { stat_chance^19 = 1 }
set_variable = { stat_chance^21 = 2 }
set_variable = { stat_chance^26 = 2 }
set_variable = { stat_chance^27 = 2 }
set_variable = { stat_chance^28 = 1 }
set_variable = { stat_chance^30 = 1 }
set_variable = { base_attack = 1.2 }
set_variable = { base_attack_var = 0.1 }
set_variable = { base_attack_speed = 0.4 }
}
# artifact
# Artifact
130 = {
set_variable = { global.artifact_scope = this }
clear_array = stat_chance
resize_array = { array = stat_chance size = 41 }
set_variable = { stat_chance^0 = 200 }
set_variable = { stat_chance^1 = 5 }
set_variable = { stat_chance^2 = 5 }
set_variable = { stat_chance^3 = 5 }
set_variable = { stat_chance^4 = 5 }
set_variable = { stat_chance^5 = 5 }
set_variable = { stat_chance^6 = 5 }
set_variable = { stat_chance^7 = 5 }
set_variable = { stat_chance^8 = 5 }
set_variable = { stat_chance^9 = 5 }
set_variable = { stat_chance^10 = 5 }
set_variable = { stat_chance^11 = 5 }
set_variable = { stat_chance^12 = 5 }
set_variable = { stat_chance^13 = 5 }
set_variable = { stat_chance^14 = 5 }
set_variable = { stat_chance^15 = 5 }
set_variable = { stat_chance^16 = 5 }
set_variable = { stat_chance^17 = 5 }
set_variable = { stat_chance^18 = 5 }
set_variable = { stat_chance^19 = 5 }
set_variable = { stat_chance^20 = 5 }
set_variable = { stat_chance^21 = 5 }
set_variable = { stat_chance^22 = 5 }
set_variable = { stat_chance^23 = 5 }
set_variable = { stat_chance^24 = 5 }
set_variable = { stat_chance^25 = 5 }
set_variable = { stat_chance^26 = 5 }
set_variable = { stat_chance^27 = 5 }
set_variable = { stat_chance^28 = 5 }
set_variable = { stat_chance^29 = 5 }
set_variable = { stat_chance^30 = 5 }
set_variable = { stat_chance^31 = 5 }
set_variable = { stat_chance^32 = 5 }
set_variable = { stat_chance^33 = 5 }
set_variable = { stat_chance^34 = 5 }
set_variable = { stat_chance^35 = 5 }
set_variable = { stat_chance^36 = 5 }
set_variable = { stat_chance^37 = 5 }
set_variable = { stat_chance^38 = 5 }
set_variable = { always_magic = 1 }
}
}
