name="Hearts and Might and Magic"
tags={
	"Gameplay"
	"Alternative History"
}
picture="thumbnail.png"
supported_version="1.11.*"
path="C:/Users/Shult/Documents/Paradox Interactive/Hearts of Iron IV/mod/homm/mod"
remote_file_id="2678855363"